module fathom

go 1.13

require (
	github.com/go-sql-driver/mysql v1.4.1-0.20181113023849-369b5d6e5e8e
	github.com/gobuffalo/envy v1.10.1 // indirect
	github.com/gobuffalo/packr v1.30.1
	github.com/gobuffalo/packr/v2 v2.8.3 // indirect
	github.com/gorilla/context v1.1.1
	github.com/gorilla/handlers v1.3.1-0.20180717233320-6257a585e449
	github.com/gorilla/mux v1.6.3-0.20180605211556-cb4698366aa6
	github.com/gorilla/securecookie v1.1.2-0.20180608144417-78f3d318a8bf // indirect
	github.com/gorilla/sessions v1.1.1
	github.com/jmoiron/sqlx v1.2.1-0.20181024163419-82935fac6c1a
	github.com/joho/godotenv v1.4.0
	github.com/kelseyhightower/envconfig v1.3.1-0.20180517194557-dd1402a4d99d
	github.com/konsorten/go-windows-terminal-sequences v1.0.3 // indirect
	github.com/lib/pq v1.0.1-0.20181016162627-9eb73efc1fcc
	github.com/mattn/go-sqlite3 v1.10.1-0.20181109095304-eed79b86572f
	github.com/mssola/user_agent v0.4.2-0.20180608081648-d7bd3b07ee86
	github.com/onsi/ginkgo v1.16.5 // indirect
	github.com/onsi/gomega v1.17.0 // indirect
	github.com/pkg/errors v0.9.1 // indirect
	github.com/rubenv/sql-migrate v0.0.0-20180704111356-3f452fc0ebeb
	github.com/sirupsen/logrus v1.8.1
	github.com/urfave/cli v1.20.1-0.20180226030253-8e01ec4cd3e2
	github.com/usefathom/fathom v1.2.1
	github.com/ziutek/mymysql v1.5.5-0.20171217234033-ff6cc86d3d93 // indirect
	golang.org/x/crypto v0.0.0-20211202192323-5770296d904e
	golang.org/x/sys v0.0.0-20211204120058-94396e421777 // indirect
	gopkg.in/airbrake/gobrake.v2 v2.0.9 // indirect
	gopkg.in/check.v1 v1.0.0-20201130134442-10cb98267c6c // indirect
	gopkg.in/gemnasium/logrus-airbrake-hook.v2 v2.1.2 // indirect
	gopkg.in/gorp.v1 v1.7.1 // indirect
)
